<svg width="27" height="27" viewBox="0 0 27 27" fill="none" xmlns="http://www.w3.org/2000/svg">
<path d="M21.7926 25.4154H4.64063C2.63764 25.4154 1 23.7418 1 21.695V4.72044C1 2.67354 2.63764 1 4.64063 1H21.7926C23.7956 1 25.4333 2.67354 25.4333 4.72044V21.695C25.4365 23.7418 23.7956 25.4154 21.7926 25.4154Z" stroke="#D2CBC5" stroke-width="1.5" stroke-miterlimit="10" stroke-linecap="round" stroke-linejoin="round"/>
<path d="M13.2169 19.2943C16.6913 19.2943 19.5079 16.416 19.5079 12.8654C19.5079 9.31484 16.6913 6.43652 13.2169 6.43652C9.74247 6.43652 6.9259 9.31484 6.9259 12.8654C6.9259 16.416 9.74247 19.2943 13.2169 19.2943Z" stroke="#D2CBC5" stroke-width="1.5" stroke-miterlimit="10" stroke-linecap="round" stroke-linejoin="round"/>
<path d="M20.5301 6.76727C20.9159 6.76727 21.2287 6.44762 21.2287 6.05331C21.2287 5.65901 20.9159 5.33936 20.5301 5.33936C20.1442 5.33936 19.8314 5.65901 19.8314 6.05331C19.8314 6.44762 20.1442 6.76727 20.5301 6.76727Z" stroke="#D2CBC5" stroke-width="1.5" stroke-miterlimit="10" stroke-linecap="round" stroke-linejoin="round"/>
</svg>
