<svg width="210" height="54" viewBox="0 0 210 54" fill="none" xmlns="http://www.w3.org/2000/svg">
<path d="M172.298 10.5638C172.302 15.4776 169.885 19.2207 165.651 20.686C161.604 22.0867 157.809 21.5231 154.51 18.6815C152.543 16.9873 151.58 14.7305 151.317 12.1691C151.054 9.60546 151.362 7.13522 152.723 4.8951C154.468 2.0213 157.117 0.511587 160.388 0.121373C163.446 -0.243271 166.268 0.457113 168.688 2.44153C170.881 4.23919 171.956 6.62827 172.227 9.41424C172.267 9.83892 172.28 10.2647 172.298 10.5638ZM156.691 10.7894C156.671 11.1852 156.707 11.6799 156.804 12.1746C157.219 14.2858 158.949 15.9567 160.995 16.2069C163.398 16.5003 165.439 15.3986 166.379 13.2841C166.93 12.0446 166.994 10.7483 166.783 9.42314C166.327 6.56268 163.564 4.67164 160.733 5.29087C158.17 5.85007 156.691 7.82448 156.691 10.7894Z" fill="#E3242A"/>
<path d="M132.554 10.257C134.858 11.6367 135.244 13.6956 134.757 16.0624C134.248 18.5449 132.761 20.1769 130.246 20.7706C129.632 20.9151 129.004 20.9618 128.375 20.9629C125.398 20.9673 122.42 20.9551 119.443 20.9762C118.994 20.9796 118.901 20.8439 118.902 20.4193C118.915 13.919 118.914 7.41881 118.903 0.918581C118.902 0.53059 118.96 0.380508 119.402 0.383843C122.157 0.407189 124.913 0.378285 127.668 0.401631C130.847 0.4272 133.323 2.4094 133.947 5.44551C134.256 6.94633 134.155 8.53609 132.554 10.257ZM126.361 16.237C126.952 16.237 127.543 16.2536 128.134 16.2336C129.134 16.1992 129.704 15.5822 129.711 14.5605C129.718 13.5244 129.113 12.8184 128.135 12.7984C126.88 12.7717 125.624 12.7973 124.368 12.7862C124.105 12.784 124.015 12.8629 124.019 13.1308C124.033 14.0558 124.034 14.9796 124.018 15.9046C124.014 16.1781 124.107 16.2492 124.367 16.2436C125.032 16.2281 125.696 16.2381 126.361 16.237ZM125.836 8.40268C125.836 8.39379 125.836 8.38378 125.836 8.37489C126.332 8.37489 126.831 8.39601 127.326 8.37044C128.279 8.32153 128.824 7.71786 128.821 6.75511C128.816 5.80459 128.233 5.14645 127.314 5.12088C126.337 5.09309 125.359 5.11977 124.382 5.10865C124.139 5.10643 124.014 5.14645 124.019 5.43439C124.036 6.32043 124.032 7.20647 124.022 8.09362C124.018 8.3382 124.109 8.4138 124.345 8.40713C124.841 8.39379 125.338 8.40268 125.836 8.40268Z" fill="#E3242A"/>
<path d="M115.121 20.9655C114.419 20.9655 113.715 20.9511 113.014 20.9722C112.687 20.9822 112.512 20.8643 112.384 20.5653C112.122 19.9561 111.813 19.368 111.55 18.7599C111.433 18.4897 111.293 18.3596 110.979 18.3607C108.556 18.3719 106.134 18.373 103.711 18.3596C103.393 18.3574 103.251 18.4908 103.137 18.7587C102.869 19.3846 102.574 19.9983 102.298 20.6209C102.189 20.8654 102.033 20.9744 101.747 20.9711C100.287 20.9566 98.8251 20.9555 97.3646 20.9722C97.0371 20.9755 96.9717 20.8599 96.9617 20.5575C96.9373 19.786 97.4056 19.2001 97.6975 18.562C100.443 12.5498 103.225 6.55427 105.979 0.546535C106.148 0.178555 106.354 0.0440372 106.73 0.096288C106.838 0.111852 106.952 0.0985114 107.063 0.0985114C108.512 0.0985114 108.492 0.107405 109.087 1.40812C110.866 5.29247 112.661 9.17015 114.45 13.0501C115.506 15.3402 116.564 17.6303 117.622 19.9205C117.692 20.0728 117.721 20.2284 117.743 20.3963C117.804 20.8554 117.647 21.0077 117.175 20.9766C116.492 20.9322 115.806 20.9655 115.121 20.9655ZM107.317 8.53202C106.562 10.2941 105.857 11.9439 105.146 13.5915C105.063 13.7838 105.097 13.8583 105.312 13.8583C106.737 13.8549 108.162 13.8572 109.653 13.8572C108.868 12.0662 108.117 10.3552 107.317 8.53202Z" fill="#E3242A"/>
<path d="M187.521 41.688C187.25 41.7069 187.166 41.8681 187.054 41.9782C183.942 45.0132 180.826 48.047 177.729 51.0976C177.385 51.4367 177.047 51.5812 176.568 51.5701C175.314 51.5401 175.312 51.5601 175.312 50.2805C175.312 44.0771 175.321 37.8726 175.297 31.6692C175.295 31.0855 175.463 30.9677 176.005 30.9821C177.409 31.0211 178.815 31.0122 180.22 30.9844C180.64 30.9766 180.743 31.0967 180.741 31.5102C180.723 34.4918 180.731 37.4735 180.731 40.4551C180.731 40.5807 180.731 40.7052 180.731 40.8375C180.994 40.862 181.078 40.6663 181.199 40.5485C184.311 37.5135 187.428 34.4807 190.52 31.4246C190.92 31.0288 191.307 30.8487 191.872 30.871C193.014 30.9154 193.015 30.8843 193.015 32.0516C193.015 38.3106 193.016 44.5707 193.014 50.8297C193.014 51.6701 193.092 51.5534 192.263 51.5579C190.895 51.5634 189.526 51.539 188.159 51.5701C187.67 51.5812 187.501 51.4723 187.507 50.9409C187.535 48.0704 187.52 45.1999 187.52 42.3295C187.521 42.1271 187.521 41.9237 187.521 41.688Z" fill="#C4C4C4"/>
<path d="M163.024 51.6412C161.194 51.6412 159.364 51.6512 157.534 51.6334C157.149 51.63 157.007 51.739 157.033 52.1325C157.064 52.575 157.02 53.0219 157.047 53.4644C157.068 53.8179 156.927 53.9002 156.598 53.8957C155.415 53.879 154.232 53.8779 153.049 53.8968C152.709 53.9024 152.608 53.8046 152.61 53.4599C152.626 51.4422 152.626 49.4233 152.61 47.4055C152.607 47.0475 152.741 46.943 153.062 46.9864C153.099 46.9908 153.138 46.9797 153.173 46.9875C154.375 47.2521 154.91 46.6884 155.367 45.5845C157.353 40.793 159.451 36.0482 161.498 31.2822C161.66 30.9042 161.873 30.7875 162.305 30.7219C163.656 30.5151 164.266 31.071 164.797 32.3206C166.792 37.0276 168.942 41.669 171.012 46.3449C171.217 46.8096 171.43 47.0497 171.976 47.0031C172.444 46.9619 173.06 46.7852 173.363 47.0909C173.665 47.3955 173.455 48.0069 173.458 48.4816C173.47 50.1292 173.454 51.7768 173.469 53.4244C173.473 53.7812 173.378 53.9057 173.005 53.8979C171.841 53.8746 170.676 53.8779 169.511 53.8968C169.169 53.9024 169.051 53.7923 169.073 53.4544C169.097 53.0853 169.046 52.7106 169.086 52.3449C169.145 51.8046 168.993 51.6111 168.402 51.6256C166.611 51.6689 164.817 51.6412 163.024 51.6412ZM162.882 39.6023C161.968 41.987 161.092 44.2738 160.214 46.5595C160.063 46.9541 160.35 46.8852 160.558 46.8863C162.145 46.8885 163.733 46.873 165.321 46.8963C165.795 46.903 165.736 46.7185 165.608 46.4049C165.218 45.4489 164.847 44.4861 164.464 43.5278C163.952 42.2505 163.435 40.9742 162.882 39.6023Z" fill="#C4C4C4"/>
<path d="M99.5349 41.2765C99.5349 38.0536 99.5482 34.8318 99.5216 31.6089C99.5171 31.0798 99.6825 30.973 100.17 30.983C101.593 31.0142 103.018 31.0108 104.441 30.9842C104.863 30.9764 104.967 31.1053 104.962 31.5156C104.943 33.7379 104.971 35.9602 104.94 38.1825C104.932 38.6995 105.102 38.8151 105.569 38.7751C106.177 38.7228 106.786 38.6761 107.369 38.4949C109.06 37.968 109.812 36.6906 110.073 35.0408C110.258 33.868 110.194 32.6784 110.26 31.4978C110.28 31.132 110.339 30.9797 110.746 30.9864C112.243 31.0097 113.741 30.9975 115.238 30.9942C115.489 30.9942 115.731 30.9664 115.701 31.3466C115.557 33.2043 115.74 35.082 115.243 36.9174C114.733 38.8007 113.722 40.3126 112.126 41.4221C111.824 41.6322 111.767 41.7667 111.975 42.1014C113.678 44.8295 115.358 47.571 117.044 50.3092C117.112 50.4192 117.188 50.5271 117.235 50.646C117.481 51.2819 117.295 51.561 116.632 51.561C115.08 51.561 113.526 51.5476 111.973 51.5699C111.574 51.5754 111.354 51.4609 111.152 51.0985C109.868 48.7895 108.544 46.5015 107.256 44.1936C107.03 43.7867 106.792 43.6233 106.31 43.67C104.954 43.8012 104.952 43.7778 104.952 45.1497C104.952 47.113 104.941 49.0763 104.961 51.0385C104.965 51.4476 104.862 51.5788 104.438 51.571C102.997 51.5443 101.553 51.5321 100.112 51.5754C99.5826 51.591 99.5216 51.3965 99.5249 50.944C99.5438 47.7211 99.5349 44.4982 99.5349 41.2765Z" fill="#C4C4C4"/>
<path d="M119.537 41.2779C119.537 38.0383 119.547 34.7988 119.525 31.5592C119.522 31.0878 119.66 30.9811 120.113 30.9844C122.977 31.0056 125.842 30.9856 128.707 30.9978C132.542 31.0134 135.52 33.7993 135.878 37.6348C136.116 40.1828 135.533 42.4496 133.727 44.3129C132.411 45.6703 130.736 46.2473 128.884 46.3151C127.684 46.3584 126.481 46.3451 125.28 46.3251C124.891 46.3184 124.777 46.4351 124.783 46.8242C124.804 48.2495 124.78 49.6747 124.798 51.0999C124.803 51.4657 124.689 51.5735 124.328 51.5691C122.886 51.5513 121.444 51.5468 120.003 51.5713C119.585 51.5791 119.528 51.4134 119.529 51.0532C119.541 47.7937 119.537 44.5352 119.537 41.2779ZM124.788 38.6631C124.788 39.458 124.804 40.254 124.782 41.0477C124.771 41.4157 124.851 41.5736 125.262 41.5625C126.351 41.5347 127.44 41.5558 128.53 41.5514C129.161 41.548 129.666 41.2812 130.054 40.7843C130.884 39.7215 130.981 37.8215 130.241 36.7031C129.868 36.1395 129.362 35.7915 128.649 35.7448C127.523 35.6703 126.398 35.7304 125.272 35.6993C124.867 35.6881 124.772 35.8527 124.782 36.224C124.804 37.0355 124.788 37.8504 124.788 38.6631Z" fill="#C4C4C4"/>
<path d="M137.634 41.2899C137.634 38.0315 137.641 34.773 137.625 31.5157C137.623 31.1099 137.716 30.9832 138.141 30.9854C142.078 31.0021 146.016 31.0009 149.952 30.9876C150.346 30.9865 150.506 31.0588 150.495 31.499C150.464 32.7386 150.47 33.9792 150.493 35.2199C150.501 35.6379 150.356 35.7602 149.949 35.7569C147.824 35.7402 145.698 35.7491 143.572 35.7491C142.87 35.7491 142.87 35.7491 142.87 36.4773C142.87 37.0142 142.894 37.5523 142.863 38.087C142.839 38.485 142.989 38.5851 143.367 38.5818C145.345 38.5651 147.323 38.5862 149.301 38.564C149.733 38.5595 149.871 38.6685 149.86 39.1154C149.829 40.3361 149.826 41.559 149.861 42.7807C149.875 43.2477 149.704 43.3244 149.291 43.321C147.332 43.3021 145.372 43.3266 143.413 43.3021C142.968 43.2966 142.843 43.43 142.86 43.8647C142.894 44.6406 142.901 45.4211 142.858 46.1959C142.829 46.7184 142.972 46.8941 143.522 46.8863C145.72 46.8552 147.921 46.893 150.12 46.8596C150.652 46.8519 150.757 47.0264 150.744 47.5122C150.711 48.7151 150.723 49.9191 150.739 51.122C150.744 51.4522 150.663 51.5689 150.311 51.5678C146.225 51.5555 142.141 51.5533 138.056 51.57C137.636 51.5711 137.628 51.3754 137.629 51.0653C137.636 47.8057 137.634 44.5484 137.634 41.2899Z" fill="#C4C4C4"/>
<path d="M204.975 43.7047C204.975 46.1494 204.965 48.5951 204.984 51.0398C204.987 51.4545 204.878 51.5768 204.458 51.569C203.053 51.5423 201.647 51.5379 200.242 51.5712C199.772 51.5823 199.702 51.4067 199.703 50.9965C199.716 46.1438 199.701 41.2911 199.725 36.4374C199.727 35.8748 199.588 35.7125 199.022 35.7325C197.729 35.777 196.433 35.7359 195.139 35.7537C194.777 35.7592 194.664 35.6536 194.67 35.2834C194.692 34.006 194.691 32.7276 194.67 31.4491C194.665 31.0811 194.779 30.9855 195.137 30.9855C199.928 30.9966 204.717 30.9977 209.507 30.9844C209.898 30.9833 210.007 31.0911 210 31.4802C209.976 32.7576 209.98 34.0361 209.997 35.3145C210.002 35.6581 209.891 35.757 209.555 35.7537C208.223 35.737 206.891 35.7737 205.56 35.7337C205.04 35.7181 204.96 35.9082 204.964 36.3696C204.986 38.8153 204.975 41.26 204.975 43.7047Z" fill="#C4C4C4"/>
<path d="M140.524 13.0456C140.524 10.5832 140.515 8.1207 140.533 5.65935C140.536 5.24468 140.457 5.08903 140 5.10126C138.652 5.13573 137.302 5.10015 135.952 5.12239C135.586 5.12794 135.488 5.02122 135.495 4.65991C135.516 3.38254 135.514 2.10518 135.496 0.82781C135.492 0.492071 135.575 0.387569 135.925 0.388681C140.73 0.40091 145.536 0.398686 150.343 0.390904C150.644 0.390904 150.761 0.455384 150.757 0.783341C150.739 2.09739 150.739 3.41256 150.757 4.72661C150.761 5.05346 150.647 5.12239 150.346 5.11905C149.015 5.1046 147.684 5.14351 146.354 5.09793C145.812 5.07903 145.737 5.27358 145.738 5.7494C145.754 10.5998 145.735 15.4503 145.765 20.3007C145.768 20.891 145.59 20.9933 145.058 20.9777C143.709 20.9399 142.36 20.9511 141.01 20.9744C140.627 20.9811 140.513 20.8832 140.515 20.4875C140.533 18.0072 140.524 15.5259 140.524 13.0456Z" fill="#E32429"/>
<path d="M69.5062 33.3387C68.0633 33.1642 66.676 32.9863 65.2854 32.8318C63.6883 32.6539 62.09 32.4894 60.4918 32.3359C60.2244 32.3104 59.988 32.2503 59.7715 32.0947C58.2854 31.0297 56.7571 30.0291 55.2078 29.0608C54.9414 28.8952 54.7749 28.6895 54.6517 28.406C53.5863 25.9602 52.5097 23.52 51.4331 21.0787C51.3832 20.9664 51.371 20.8185 51.1889 20.754C50.5663 22.1982 49.9381 23.6434 49.3177 25.092C46.8904 30.7584 44.4654 36.4248 42.0392 42.0913C40.744 45.1163 39.4388 48.1368 38.1558 51.1663C37.9915 51.5542 37.8095 51.7255 37.3545 51.7221C33.6186 51.6999 29.8828 51.701 26.1481 51.721C25.6953 51.7232 25.6576 51.5676 25.6032 51.1663C25.3956 49.6299 26.2469 48.4359 26.8285 47.1663C30.6953 38.7328 34.5876 30.3104 38.4688 21.8824C41.7418 14.7752 45.0147 7.66797 48.2722 0.554076C48.4576 0.150522 48.6595 -0.00956591 49.1201 0.000439569C50.6174 0.0349029 52.1157 0.0293443 53.614 0.00266301C54.028 -0.00511903 54.2233 0.133846 54.3942 0.505161C57.1878 6.57627 59.9979 12.6407 62.8015 18.7074C65.0179 23.5022 67.2287 28.3004 69.4418 33.0964C69.4618 33.1475 69.4696 33.2031 69.5062 33.3387Z" fill="#E32429"/>
<path d="M18.9731 49.5676C19.8499 47.7044 20.6801 45.8178 21.6201 43.9868C22.1895 42.8784 22.3682 41.7545 22.3182 40.5316C22.2594 39.1097 22.3049 37.6834 22.3049 36.157C22.9786 36.5427 23.6001 36.8796 24.2006 37.2509C24.4913 37.4299 24.6334 37.4443 24.791 37.0841C25.3515 35.8112 25.9497 34.555 26.6034 33.1409C25.6545 33.6978 24.8509 34.1648 24.0529 34.6395C23.7466 34.8207 23.6256 34.8073 23.6279 34.3904C23.6434 31.7612 23.6356 29.132 23.6356 26.3894C24.397 26.8263 25.1029 27.2298 25.8065 27.6356C26.5723 28.077 27.3448 28.5072 28.0962 28.9708C28.3836 29.1487 28.4991 29.0642 28.6145 28.7974C28.8198 28.3238 29.2804 27.8057 29.1916 27.4044C29.1006 26.9908 28.3814 26.8552 27.9475 26.5806C27.4702 26.2793 26.9719 26.0114 26.4325 25.7001C27.9785 24.8085 29.4735 23.9403 30.9752 23.0831C31.2238 22.9408 31.3969 22.7696 31.5201 22.5006C34.883 15.1921 38.2581 7.89036 41.6188 0.580802C41.8141 0.155013 42.0505 -0.0217506 42.5333 0.00270725C43.419 0.0460643 44.308 0.0293885 45.1948 0.00937757C45.6199 -0.000627913 45.7886 0.0127127 45.5499 0.522992C43.4789 4.95876 41.4379 9.40897 39.3846 13.8525C35.4557 22.3583 31.5257 30.863 27.5967 39.3687C26.0452 42.7272 24.5047 46.0902 22.9375 49.4409C22.6578 50.0379 22.7821 50.6405 22.7766 51.2386C22.7722 51.6366 22.6534 51.7333 22.2738 51.7233C21.3127 51.6977 20.3504 51.6955 19.3904 51.7233C18.9897 51.7344 18.8721 51.5954 18.9032 51.2163C18.9487 50.6649 18.8443 50.1068 18.9809 49.5588L18.9731 49.5676Z" fill="#E3242A"/>
<path d="M40.623 49.2564C42.5698 44.7116 44.5131 40.1769 46.4565 35.6411C46.4909 35.6467 46.5253 35.6533 46.5597 35.6589C46.5597 36.6005 46.5597 37.541 46.5597 38.5805C48.169 37.6511 49.694 36.7717 51.2889 35.8512C50.078 35.1508 48.9371 34.4716 47.775 33.8312C47.4287 33.64 47.3677 33.4844 47.5331 33.1153C48.1724 31.6878 48.7806 30.2459 49.3832 28.8018C49.5031 28.5139 49.6074 28.4361 49.9415 28.5239C51.9515 29.0564 53.8582 29.7979 55.5829 30.9908C56.9625 31.9446 58.4164 32.7907 59.7349 33.8357C59.8759 33.9469 60.0302 33.9724 60.1989 33.9824C63.3342 34.1636 66.4652 34.3993 69.5828 34.7818C73.8491 35.3054 78.0955 35.9413 82.1287 37.5355C83.3507 38.018 84.4905 38.6505 85.5593 39.4221C86.9467 40.4237 87.4938 41.6911 86.9655 43.3742C86.6093 44.5082 86.6758 45.6233 87.1664 46.7239C87.3751 47.1919 87.4949 47.7033 87.6148 48.2036C87.7835 48.9128 87.5005 49.2908 86.7813 49.2953C84.5993 49.3075 82.4173 49.2919 80.2353 49.3075C79.8024 49.3108 79.9034 49.1318 80.0122 48.8795C80.7591 47.143 80.8457 45.3709 80.232 43.5821C79.1399 40.3971 75.9956 38.3615 72.6915 38.6817C69.373 39.003 66.655 41.5388 66.1644 44.8095C65.958 46.188 66.1089 47.5376 66.6849 48.8228C66.8159 49.1163 66.8936 49.3097 66.4097 49.3097C57.8659 49.2975 49.3233 49.3008 40.7795 49.2986C40.7462 49.2986 40.7141 49.2819 40.623 49.2564ZM53.028 42.4704C54.6251 41.5466 56.1468 40.6661 57.7194 39.7556C56.129 38.8373 54.6074 37.9591 53.028 37.0474C53.028 38.8896 53.028 40.6405 53.028 42.4704ZM50.1246 45.0407C50.1246 43.4921 50.1246 42.0157 50.1246 40.4738C48.7983 41.242 47.5242 41.979 46.179 42.7572C47.5286 43.5377 48.8061 44.277 50.1246 45.0407ZM44.0192 44.4326C44.0192 45.7689 44.0192 47.0229 44.0192 48.3258C45.1613 47.6655 46.2512 47.0351 47.3855 46.3792C46.2501 45.7233 45.158 45.0919 44.0192 44.4326ZM53.0269 48.3303C53.8504 47.85 54.6063 47.4098 55.3943 46.9495C54.5907 46.4882 53.836 46.0546 53.0269 45.5899C53.0269 46.5315 53.0269 47.3898 53.0269 48.3303Z" fill="white"/>
<path d="M79.2644 45.9231C79.28 49.196 76.6518 51.8653 73.3921 51.8886C70.1347 51.912 67.4688 49.2727 67.4455 46.0021C67.4222 42.6958 70.0459 40.0266 73.3411 40.0021C76.5775 39.9788 79.25 42.6502 79.2644 45.9231ZM75.3544 45.9565C75.3577 44.837 74.4776 43.9443 73.3622 43.9365C72.259 43.9287 71.35 44.8314 71.3467 45.9387C71.3433 47.0471 72.2412 47.9576 73.3444 47.9642C74.4465 47.972 75.3511 47.0682 75.3544 45.9565Z" fill="white"/>
<path d="M20.9842 35.382C19.1896 36.4192 17.4393 37.4309 15.6436 38.4692C15.6436 36.4081 15.6436 34.4003 15.6436 32.3003C17.4315 33.3331 19.1862 34.3447 20.9842 35.382Z" fill="#E3242A"/>
<path d="M20.9436 31.7758C19.1467 30.7363 17.4043 29.728 15.5752 28.6696C17.4031 27.6124 19.1467 26.604 20.9436 25.5635C20.9436 27.6635 20.9436 29.6891 20.9436 31.7758Z" fill="#E3242A"/>
<path d="M20.2743 46.5362C18.4963 45.5079 16.7638 44.5073 14.9336 43.4501C16.7405 42.404 18.4785 41.3979 20.2743 40.3584C20.2743 42.4306 20.2743 44.434 20.2743 46.5362Z" fill="#E3242A"/>
<path d="M11.1978 32.29C11.1978 34.3867 11.1978 36.3923 11.1978 38.4745C9.40535 37.4384 7.66175 36.4312 5.85156 35.3851C7.63956 34.3501 9.38427 33.3395 11.1978 32.29Z" fill="#E3242A"/>
<path d="M8.50293 42.9121C10.0301 42.0282 11.4729 41.1922 12.9568 40.334C12.9568 42.0527 12.9568 43.7247 12.9568 45.4824C11.4785 44.6286 10.0345 43.7959 8.50293 42.9121Z" fill="#E3242A"/>
<path d="M18.9808 49.5585C18.8498 49.3695 18.7544 49.5563 18.67 49.6041C17.5668 50.23 16.4692 50.8648 15.3693 51.4963C15.2616 51.5585 15.1651 51.6586 14.9941 51.6297C14.9941 50.1422 14.9941 48.6536 14.9941 47.085C15.8898 47.5952 16.7588 48.0877 17.6267 48.5847C17.9775 48.7859 18.3182 49.0049 18.6733 49.1983C18.8321 49.2851 18.9586 49.374 18.9719 49.5674C18.973 49.5674 18.9808 49.5585 18.9808 49.5585Z" fill="#E3242A"/>
<path d="M5.86388 44.368C4.70851 43.7032 3.58422 43.0562 2.40332 42.3758C3.56202 41.7043 4.68299 41.054 5.86388 40.3691C5.86388 41.7121 5.86388 43.0028 5.86388 44.368Z" fill="#E3242A"/>
<path d="M6.78125 27.5923C7.98102 26.8997 9.10642 26.2482 10.3195 25.5479C10.3195 26.8597 10.3173 28.0859 10.3206 29.3121C10.3217 29.6768 10.1286 29.5367 9.97434 29.4478C8.92551 28.8419 7.87891 28.2304 6.78125 27.5923Z" fill="#E3242A"/>
<path d="M0 37.1426C0 35.9364 0 34.828 0 33.6318C1.02108 34.2177 1.99998 34.7791 3.04325 35.3784C2.01885 35.9731 1.04549 36.5368 0 37.1426Z" fill="#E3242A"/>
<path d="M7.32422 50.2071C7.32422 49.0186 7.32422 47.9169 7.32422 46.7207C8.32865 47.2977 9.28868 47.8491 10.3453 48.4561C9.30977 49.0564 8.34419 49.6156 7.32422 50.2071Z" fill="#E3242A"/>
<path d="M25.0974 25.0287C24.3127 24.5751 23.5857 24.1549 22.7744 23.6846C23.5602 23.2266 24.2994 22.7953 25.0974 22.3306C25.0974 23.2566 25.0974 24.0949 25.0974 25.0287Z" fill="#E3242A"/>
</svg>
