<svg width="28" height="28" viewBox="0 0 28 28" fill="none" xmlns="http://www.w3.org/2000/svg">
<path d="M10.3885 17.6626C7.50597 14.2351 7.02498 11.504 7.51269 9.92311C7.76159 9.11586 7.98695 8.37925 8.81438 7.71664C9.83689 6.89594 10.1968 7.1213 10.634 7.55855L11.5691 10.0072C11.781 10.6698 11.3 11.1642 11.004 11.4602C10.5197 11.9446 10.1026 12.3617 10.1026 12.3617C10.1026 12.3617 10.6946 14.3024 12.1712 15.779L12.5681 16.1826C14.0446 17.6592 15.9316 18.0864 15.9316 18.0864C15.9316 18.0864 16.6985 17.3195 17.1862 16.8318C17.4788 16.5391 17.8353 16.001 18.6291 16.3609L21.108 17.4271C21.5453 17.8644 21.6731 18.4429 20.6035 19.5091C18.6291 21.4835 14.2532 21.497 10.3885 17.6626Z" stroke="#75CD1E" stroke-width="1.5" stroke-miterlimit="10" stroke-linecap="round" stroke-linejoin="round"/>
<path d="M27 13.8718C27 20.9789 21.2383 26.7406 14.1312 26.7406C11.7532 26.7406 9.52652 26.0948 7.61604 24.9714L1 26.9222L3.14929 20.582C1.95188 18.6278 1.26235 16.3305 1.26235 13.8718C1.26235 6.76464 7.02406 1.00293 14.1312 1.00293C21.2383 1.00293 27 6.76464 27 13.8718Z" stroke="#75CD1E" stroke-width="1.5" stroke-miterlimit="10" stroke-linecap="round" stroke-linejoin="round"/>
</svg>
